{
    "type": "taxi",
    "track": "93",
    "from": [
        "51.52788",
        "46.0266"
    ],
    "to": [
        "51.52984",
        "46.01812"
    ],
    "ID": "6",
    "load": "44",
    "delay": "2000",
    "cnt": "50"
}