{
    "type": "bus",
    "track": "18",
    "from": [
        "51.421234",
        "46.046516"
    ],
    "to": [
        "51.416541",
        "46.053214"
    ],
    "ID": "5",
    "load": "45",
    "delay": "1500",
    "cnt": "75"
}